{
"frames": [
	{
		"filename": "ai_prt.png",
		"frame": {"x":0, "y":0, "w":100, "h":90},
		"trimmed": "true",
		"spriteSourceSize": {"x":0,"y":0,"w":100,"h":90},
		"sourceSize": {"w":100,"h":90}
	},
	{
		"filename": "ball.png",
		"frame": {"x":633, "y":251, "w":50, "h":50},
		"trimmed": "true",
		"spriteSourceSize": {"x":4,"y":6,"w":58,"h":60},
		"sourceSize": {"w":58,"h":60}
	},
	{
		"filename": "ball_bh1.png",
		"frame": {"x":395, "y":463, "w":52, "h":48},
		"trimmed": "true",
		"spriteSourceSize": {"x":2,"y":8,"w":58,"h":60},
		"sourceSize": {"w":58,"h":60}
	},
	{
		"filename": "ball_bh2.png",
		"frame": {"x":190, "y":394, "w":54, "h":46},
		"trimmed": "true",
		"spriteSourceSize": {"x":2,"y":8,"w":58,"h":60},
		"sourceSize": {"w":58,"h":60}
	},
	{
		"filename": "ball_bv1.png",
		"frame": {"x":637, "y":25, "w":48, "h":54},
		"trimmed": "true",
		"spriteSourceSize": {"x":6,"y":4,"w":58,"h":60},
		"sourceSize": {"w":58,"h":60}
	},
	{
		"filename": "ball_bv2.png",
		"frame": {"x":733, "y":0, "w":46, "h":56},
		"trimmed": "true",
		"spriteSourceSize": {"x":6,"y":2,"w":58,"h":60},
		"sourceSize": {"w":58,"h":60}
	},
	{
		"filename": "ball_eye.png",
		"frame": {"x":160, "y":51, "w":22, "h":22},
		"trimmed": "true",
		"spriteSourceSize": {"x":0,"y":0,"w":22,"h":22},
		"sourceSize": {"w":22,"h":22}
	},
	{
		"filename": "ball_eye_closed.png",
		"frame": {"x":95, "y":496, "w":22, "h":14},
		"trimmed": "true",
		"spriteSourceSize": {"x":0,"y":0,"w":22,"h":14},
		"sourceSize": {"w":22,"h":14}
	},
	{
		"filename": "ball_eye_gloss.png",
		"frame": {"x":108, "y":80, "w":4, "h":4},
		"trimmed": "true",
		"spriteSourceSize": {"x":0,"y":0,"w":4,"h":4},
		"sourceSize": {"w":4,"h":4}
	},
	{
		"filename": "ball_pupil.png",
		"frame": {"x":101, "y":80, "w":6, "h":6},
		"trimmed": "true",
		"spriteSourceSize": {"x":0,"y":0,"w":6,"h":6},
		"sourceSize": {"w":6,"h":6}
	},
	{
		"filename": "ball_pupil_b.png",
		"frame": {"x":118, "y":496, "w":12, "h":12},
		"trimmed": "true",
		"spriteSourceSize": {"x":0,"y":0,"w":12,"h":12},
		"sourceSize": {"w":12,"h":12}
	},
	{
		"filename": "beholder_a1.png",
		"frame": {"x":521, "y":255, "w":58, "h":94},
		"trimmed": "true",
		"spriteSourceSize": {"x":6,"y":2,"w":66,"h":98},
		"sourceSize": {"w":66,"h":98}
	},
	{
		"filename": "beholder_a2.png",
		"frame": {"x":405, "y":0, "w":60, "h":92},
		"trimmed": "true",
		"spriteSourceSize": {"x":2,"y":4,"w":66,"h":98},
		"sourceSize": {"w":66,"h":98}
	},
	{
		"filename": "beholder_d.png",
		"frame": {"x":578, "y":435, "w":56, "h":52},
		"trimmed": "true",
		"spriteSourceSize": {"x":0,"y":0,"w":56,"h":52},
		"sourceSize": {"w":56,"h":52}
	},
	{
		"filename": "beholder_i.png",
		"frame": {"x":686, "y":281, "w":46, "h":80},
		"trimmed": "true",
		"spriteSourceSize": {"x":6,"y":16,"w":66,"h":98},
		"sourceSize": {"w":66,"h":98}
	},
	{
		"filename": "beholder_prt.png",
		"frame": {"x":0, "y":257, "w":94, "h":86},
		"trimmed": "true",
		"spriteSourceSize": {"x":0,"y":2,"w":94,"h":88},
		"sourceSize": {"w":94,"h":88}
	},
	{
		"filename": "beholder_w1.png",
		"frame": {"x":684, "y":210, "w":46, "h":70},
		"trimmed": "true",
		"spriteSourceSize": {"x":6,"y":16,"w":66,"h":98},
		"sourceSize": {"w":66,"h":98}
	},
	{
		"filename": "beholder_w2.png",
		"frame": {"x":686, "y":130, "w":46, "h":68},
		"trimmed": "true",
		"spriteSourceSize": {"x":6,"y":18,"w":66,"h":98},
		"sourceSize": {"w":66,"h":98}
	},
	{
		"filename": "beholder_w3.png",
		"frame": {"x":686, "y":0, "w":46, "h":70},
		"trimmed": "true",
		"spriteSourceSize": {"x":6,"y":18,"w":66,"h":98},
		"sourceSize": {"w":66,"h":98}
	},
	{
		"filename": "beholder_w4.png",
		"frame": {"x":733, "y":57, "w":46, "h":68},
		"trimmed": "true",
		"spriteSourceSize": {"x":6,"y":18,"w":66,"h":98},
		"sourceSize": {"w":66,"h":98}
	},
	{
		"filename": "bes_a1.png",
		"frame": {"x":778, "y":189, "w":42, "h":62},
		"trimmed": "true",
		"spriteSourceSize": {"x":2,"y":2,"w":46,"h":66},
		"sourceSize": {"w":46,"h":66}
	},
	{
		"filename": "bes_a2.png",
		"frame": {"x":778, "y":443, "w":40, "h":58},
		"trimmed": "true",
		"spriteSourceSize": {"x":2,"y":6,"w":46,"h":66},
		"sourceSize": {"w":46,"h":66}
	},
	{
		"filename": "bes_d.png",
		"frame": {"x":101, "y":51, "w":58, "h":28},
		"trimmed": "true",
		"spriteSourceSize": {"x":0,"y":0,"w":58,"h":28},
		"sourceSize": {"w":58,"h":28}
	},
	{
		"filename": "bes_i.png",
		"frame": {"x":821, "y":366, "w":34, "h":58},
		"trimmed": "true",
		"spriteSourceSize": {"x":4,"y":6,"w":46,"h":66},
		"sourceSize": {"w":46,"h":66}
	},
	{
		"filename": "bes_prt.png",
		"frame": {"x":95, "y":352, "w":94, "h":88},
		"trimmed": "true",
		"spriteSourceSize": {"x":0,"y":0,"w":94,"h":88},
		"sourceSize": {"w":94,"h":88}
	},
	{
		"filename": "bes_w1.png",
		"frame": {"x":821, "y":189, "w":34, "h":58},
		"trimmed": "true",
		"spriteSourceSize": {"x":4,"y":6,"w":46,"h":66},
		"sourceSize": {"w":46,"h":66}
	},
	{
		"filename": "bes_w2.png",
		"frame": {"x":856, "y":157, "w":34, "h":56},
		"trimmed": "true",
		"spriteSourceSize": {"x":4,"y":6,"w":46,"h":66},
		"sourceSize": {"w":46,"h":66}
	},
	{
		"filename": "bes_w3.png",
		"frame": {"x":823, "y":100, "w":34, "h":56},
		"trimmed": "true",
		"spriteSourceSize": {"x":4,"y":6,"w":46,"h":66},
		"sourceSize": {"w":46,"h":66}
	},
	{
		"filename": "bes_w4.png",
		"frame": {"x":856, "y":366, "w":34, "h":56},
		"trimmed": "true",
		"spriteSourceSize": {"x":4,"y":6,"w":46,"h":66},
		"sourceSize": {"w":46,"h":66}
	},
	{
		"filename": "bigDevil_a1.png",
		"frame": {"x":190, "y":299, "w":70, "h":94},
		"trimmed": "true",
		"spriteSourceSize": {"x":2,"y":6,"w":76,"h":102},
		"sourceSize": {"w":76,"h":102}
	},
	{
		"filename": "bigDevil_a2.png",
		"frame": {"x":261, "y":299, "w":68, "h":94},
		"trimmed": "true",
		"spriteSourceSize": {"x":2,"y":6,"w":76,"h":102},
		"sourceSize": {"w":76,"h":102}
	},
	{
		"filename": "bigDevil_a3.png",
		"frame": {"x":271, "y":0, "w":68, "h":94},
		"trimmed": "true",
		"spriteSourceSize": {"x":2,"y":6,"w":76,"h":102},
		"sourceSize": {"w":76,"h":102}
	},
	{
		"filename": "bigDevil_d.png",
		"frame": {"x":271, "y":176, "w":64, "h":88},
		"trimmed": "true",
		"spriteSourceSize": {"x":0,"y":0,"w":64,"h":88},
		"sourceSize": {"w":64,"h":88}
	},
	{
		"filename": "bigDevil_i.png",
		"frame": {"x":460, "y":93, "w":60, "h":94},
		"trimmed": "true",
		"spriteSourceSize": {"x":8,"y":6,"w":76,"h":102},
		"sourceSize": {"w":76,"h":102}
	},
	{
		"filename": "bigDevil_prt.png",
		"frame": {"x":0, "y":91, "w":94, "h":86},
		"trimmed": "true",
		"spriteSourceSize": {"x":0,"y":0,"w":94,"h":88},
		"sourceSize": {"w":94,"h":88}
	},
	{
		"filename": "bigDevil_w1.png",
		"frame": {"x":460, "y":188, "w":60, "h":96},
		"trimmed": "true",
		"spriteSourceSize": {"x":8,"y":4,"w":76,"h":102},
		"sourceSize": {"w":76,"h":102}
	},
	{
		"filename": "bigDevil_w2.png",
		"frame": {"x":330, "y":265, "w":64, "h":94},
		"trimmed": "true",
		"spriteSourceSize": {"x":8,"y":6,"w":76,"h":102},
		"sourceSize": {"w":76,"h":102}
	},
	{
		"filename": "bigDevil_w3.png",
		"frame": {"x":460, "y":285, "w":60, "h":92},
		"trimmed": "true",
		"spriteSourceSize": {"x":8,"y":6,"w":76,"h":102},
		"sourceSize": {"w":76,"h":102}
	},
	{
		"filename": "bigDevil_w4.png",
		"frame": {"x":466, "y":0, "w":60, "h":92},
		"trimmed": "true",
		"spriteSourceSize": {"x":8,"y":6,"w":76,"h":102},
		"sourceSize": {"w":76,"h":102}
	},
	{
		"filename": "biggy_a1.png",
		"frame": {"x":330, "y":360, "w":64, "h":94},
		"trimmed": "true",
		"spriteSourceSize": {"x":8,"y":6,"w":74,"h":108},
		"sourceSize": {"w":74,"h":108}
	},
	{
		"filename": "biggy_a2.png",
		"frame": {"x":580, "y":251, "w":52, "h":86},
		"trimmed": "true",
		"spriteSourceSize": {"x":8,"y":20,"w":74,"h":108},
		"sourceSize": {"w":74,"h":108}
	},
	{
		"filename": "biggy_d.png",
		"frame": {"x":95, "y":441, "w":92, "h":54},
		"trimmed": "true",
		"spriteSourceSize": {"x":0,"y":0,"w":92,"h":54},
		"sourceSize": {"w":92,"h":54}
	},
	{
		"filename": "biggy_i.png",
		"frame": {"x":395, "y":186, "w":64, "h":92},
		"trimmed": "true",
		"spriteSourceSize": {"x":2,"y":4,"w":74,"h":108},
		"sourceSize": {"w":74,"h":108}
	},
	{
		"filename": "biggy_prt.png",
		"frame": {"x":0, "y":178, "w":94, "h":78},
		"trimmed": "true",
		"spriteSourceSize": {"x":0,"y":10,"w":94,"h":88},
		"sourceSize": {"w":94,"h":88}
	},
	{
		"filename": "biggy_w1.png",
		"frame": {"x":395, "y":279, "w":64, "h":90},
		"trimmed": "true",
		"spriteSourceSize": {"x":2,"y":4,"w":74,"h":108},
		"sourceSize": {"w":74,"h":108}
	},
	{
		"filename": "biggy_w2.png",
		"frame": {"x":395, "y":370, "w":64, "h":92},
		"trimmed": "true",
		"spriteSourceSize": {"x":2,"y":2,"w":74,"h":108},
		"sourceSize": {"w":74,"h":108}
	},
	{
		"filename": "biggy_w3.png",
		"frame": {"x":340, "y":0, "w":64, "h":92},
		"trimmed": "true",
		"spriteSourceSize": {"x":2,"y":4,"w":74,"h":108},
		"sourceSize": {"w":74,"h":108}
	},
	{
		"filename": "biggy_w4.png",
		"frame": {"x":340, "y":93, "w":64, "h":92},
		"trimmed": "true",
		"spriteSourceSize": {"x":2,"y":4,"w":74,"h":108},
		"sourceSize": {"w":74,"h":108}
	},
	{
		"filename": "bishop_i.png",
		"frame": {"x":521, "y":429, "w":56, "h":80},
		"trimmed": "true",
		"spriteSourceSize": {"x":0,"y":0,"w":56,"h":80},
		"sourceSize": {"w":56,"h":80}
	},
	{
		"filename": "bonus.png",
		"frame": {"x":819, "y":53, "w":38, "h":46},
		"trimmed": "true",
		"spriteSourceSize": {"x":0,"y":0,"w":38,"h":46},
		"sourceSize": {"w":38,"h":46}
	},
	{
		"filename": "gates.png",
		"frame": {"x":190, "y":0, "w":80, "h":298},
		"trimmed": "true",
		"spriteSourceSize": {"x":0,"y":0,"w":80,"h":298},
		"sourceSize": {"w":80,"h":298}
	},
	{
		"filename": "human_prt.png",
		"frame": {"x":271, "y":95, "w":68, "h":80},
		"trimmed": "true",
		"spriteSourceSize": {"x":0,"y":0,"w":68,"h":80},
		"sourceSize": {"w":68,"h":80}
	},
	{
		"filename": "knight_a1.png",
		"frame": {"x":731, "y":199, "w":46, "h":60},
		"trimmed": "true",
		"spriteSourceSize": {"x":8,"y":6,"w":58,"h":68},
		"sourceSize": {"w":58,"h":68}
	},
	{
		"filename": "knight_a2.png",
		"frame": {"x":635, "y":442, "w":48, "h":60},
		"trimmed": "true",
		"spriteSourceSize": {"x":8,"y":6,"w":58,"h":68},
		"sourceSize": {"w":58,"h":68}
	},
	{
		"filename": "knight_d.png",
		"frame": {"x":780, "y":0, "w":40, "h":52},
		"trimmed": "true",
		"spriteSourceSize": {"x":0,"y":0,"w":40,"h":52},
		"sourceSize": {"w":40,"h":52}
	},
	{
		"filename": "knight_i.png",
		"frame": {"x":733, "y":260, "w":46, "h":60},
		"trimmed": "true",
		"spriteSourceSize": {"x":2,"y":6,"w":58,"h":68},
		"sourceSize": {"w":58,"h":68}
	},
	{
		"filename": "knight_prt.png",
		"frame": {"x":95, "y":269, "w":94, "h":82},
		"trimmed": "true",
		"spriteSourceSize": {"x":0,"y":6,"w":94,"h":88},
		"sourceSize": {"w":94,"h":88}
	},
	{
		"filename": "knight_w1.png",
		"frame": {"x":686, "y":362, "w":46, "h":62},
		"trimmed": "true",
		"spriteSourceSize": {"x":2,"y":4,"w":58,"h":68},
		"sourceSize": {"w":58,"h":68}
	},
	{
		"filename": "knight_w2.png",
		"frame": {"x":733, "y":321, "w":46, "h":60},
		"trimmed": "true",
		"spriteSourceSize": {"x":2,"y":6,"w":58,"h":68},
		"sourceSize": {"w":58,"h":68}
	},
	{
		"filename": "knight_w3.png",
		"frame": {"x":686, "y":71, "w":46, "h":58},
		"trimmed": "true",
		"spriteSourceSize": {"x":2,"y":6,"w":58,"h":68},
		"sourceSize": {"w":58,"h":68}
	},
	{
		"filename": "knight_w4.png",
		"frame": {"x":684, "y":442, "w":46, "h":58},
		"trimmed": "true",
		"spriteSourceSize": {"x":2,"y":6,"w":58,"h":68},
		"sourceSize": {"w":58,"h":68}
	},
	{
		"filename": "shadow.png",
		"frame": {"x":271, "y":265, "w":50, "h":26},
		"trimmed": "true",
		"spriteSourceSize": {"x":0,"y":0,"w":50,"h":26},
		"sourceSize": {"w":50,"h":26}
	},
	{
		"filename": "slime_a1.png",
		"frame": {"x":188, "y":441, "w":70, "h":62},
		"trimmed": "true",
		"spriteSourceSize": {"x":6,"y":10,"w":78,"h":74},
		"sourceSize": {"w":78,"h":74}
	},
	{
		"filename": "slime_a2.png",
		"frame": {"x":259, "y":394, "w":70, "h":56},
		"trimmed": "true",
		"spriteSourceSize": {"x":6,"y":14,"w":78,"h":74},
		"sourceSize": {"w":78,"h":74}
	},
	{
		"filename": "slime_d.png",
		"frame": {"x":460, "y":378, "w":60, "h":58},
		"trimmed": "true",
		"spriteSourceSize": {"x":0,"y":0,"w":60,"h":58},
		"sourceSize": {"w":60,"h":58}
	},
	{
		"filename": "slime_i.png",
		"frame": {"x":460, "y":437, "w":56, "h":60},
		"trimmed": "true",
		"spriteSourceSize": {"x":6,"y":10,"w":78,"h":74},
		"sourceSize": {"w":78,"h":74}
	},
	{
		"filename": "slime_prt.png",
		"frame": {"x":0, "y":433, "w":94, "h":76},
		"trimmed": "true",
		"spriteSourceSize": {"x":0,"y":12,"w":94,"h":88},
		"sourceSize": {"w":94,"h":88}
	},
	{
		"filename": "slime_w1.png",
		"frame": {"x":330, "y":455, "w":64, "h":50},
		"trimmed": "true",
		"spriteSourceSize": {"x":2,"y":16,"w":78,"h":74},
		"sourceSize": {"w":78,"h":74}
	},
	{
		"filename": "slime_w2.png",
		"frame": {"x":635, "y":373, "w":50, "h":68},
		"trimmed": "true",
		"spriteSourceSize": {"x":10,"y":2,"w":78,"h":74},
		"sourceSize": {"w":78,"h":74}
	},
	{
		"filename": "sworcher_a1.png",
		"frame": {"x":778, "y":382, "w":42, "h":60},
		"trimmed": "true",
		"spriteSourceSize": {"x":4,"y":2,"w":52,"h":70},
		"sourceSize": {"w":52,"h":70}
	},
	{
		"filename": "sworcher_a2.png",
		"frame": {"x":733, "y":126, "w":44, "h":56},
		"trimmed": "true",
		"spriteSourceSize": {"x":6,"y":12,"w":52,"h":70},
		"sourceSize": {"w":52,"h":70}
	},
	{
		"filename": "sworcher_d.png",
		"frame": {"x":637, "y":0, "w":48, "h":24},
		"trimmed": "true",
		"spriteSourceSize": {"x":0,"y":0,"w":48,"h":24},
		"sourceSize": {"w":48,"h":24}
	},
	{
		"filename": "sworcher_i.png",
		"frame": {"x":780, "y":309, "w":38, "h":56},
		"trimmed": "true",
		"spriteSourceSize": {"x":2,"y":4,"w":52,"h":70},
		"sourceSize": {"w":52,"h":70}
	},
	{
		"filename": "sworcher_prt.png",
		"frame": {"x":95, "y":91, "w":94, "h":88},
		"trimmed": "true",
		"spriteSourceSize": {"x":0,"y":0,"w":94,"h":88},
		"sourceSize": {"w":94,"h":88}
	},
	{
		"filename": "sworcher_w1.png",
		"frame": {"x":780, "y":53, "w":38, "h":56},
		"trimmed": "true",
		"spriteSourceSize": {"x":2,"y":4,"w":52,"h":70},
		"sourceSize": {"w":52,"h":70}
	},
	{
		"filename": "sworcher_w2.png",
		"frame": {"x":780, "y":252, "w":38, "h":56},
		"trimmed": "true",
		"spriteSourceSize": {"x":2,"y":4,"w":52,"h":70},
		"sourceSize": {"w":52,"h":70}
	},
	{
		"filename": "sworcher_w3.png",
		"frame": {"x":819, "y":443, "w":38, "h":56},
		"trimmed": "true",
		"spriteSourceSize": {"x":2,"y":4,"w":52,"h":70},
		"sourceSize": {"w":52,"h":70}
	},
	{
		"filename": "sworcher_w4.png",
		"frame": {"x":819, "y":252, "w":38, "h":56},
		"trimmed": "true",
		"spriteSourceSize": {"x":2,"y":4,"w":52,"h":70},
		"sourceSize": {"w":52,"h":70}
	},
	{
		"filename": "sworcher_w5.png",
		"frame": {"x":819, "y":309, "w":38, "h":56},
		"trimmed": "true",
		"spriteSourceSize": {"x":2,"y":4,"w":52,"h":70},
		"sourceSize": {"w":52,"h":70}
	},
	{
		"filename": "threclops_a1.png",
		"frame": {"x":584, "y":0, "w":52, "h":72},
		"trimmed": "true",
		"spriteSourceSize": {"x":6,"y":4,"w":62,"h":84},
		"sourceSize": {"w":62,"h":84}
	},
	{
		"filename": "threclops_a2.png",
		"frame": {"x":635, "y":302, "w":50, "h":70},
		"trimmed": "true",
		"spriteSourceSize": {"x":0,"y":0,"w":50,"h":70},
		"sourceSize": {"w":50,"h":70}
	},
	{
		"filename": "threclops_d.png",
		"frame": {"x":259, "y":451, "w":70, "h":44},
		"trimmed": "true",
		"spriteSourceSize": {"x":0,"y":0,"w":70,"h":44},
		"sourceSize": {"w":70,"h":44}
	},
	{
		"filename": "threclops_i.png",
		"frame": {"x":336, "y":186, "w":56, "h":68},
		"trimmed": "true",
		"spriteSourceSize": {"x":2,"y":14,"w":62,"h":84},
		"sourceSize": {"w":62,"h":84}
	},
	{
		"filename": "threclops_prt.png",
		"frame": {"x":95, "y":180, "w":94, "h":88},
		"trimmed": "true",
		"spriteSourceSize": {"x":0,"y":0,"w":94,"h":88},
		"sourceSize": {"w":94,"h":88}
	},
	{
		"filename": "threclops_w1.png",
		"frame": {"x":731, "y":425, "w":46, "h":62},
		"trimmed": "true",
		"spriteSourceSize": {"x":4,"y":12,"w":62,"h":84},
		"sourceSize": {"w":62,"h":84}
	},
	{
		"filename": "threclops_w2.png",
		"frame": {"x":637, "y":145, "w":48, "h":64},
		"trimmed": "true",
		"spriteSourceSize": {"x":2,"y":12,"w":62,"h":84},
		"sourceSize": {"w":62,"h":84}
	},
	{
		"filename": "threclops_w3.png",
		"frame": {"x":637, "y":80, "w":48, "h":64},
		"trimmed": "true",
		"spriteSourceSize": {"x":4,"y":12,"w":62,"h":84},
		"sourceSize": {"w":62,"h":84}
	},
	{
		"filename": "threclops_w4.png",
		"frame": {"x":778, "y":126, "w":44, "h":62},
		"trimmed": "true",
		"spriteSourceSize": {"x":6,"y":14,"w":62,"h":84},
		"sourceSize": {"w":62,"h":84}
	},
	{
		"filename": "wizard_a1.png",
		"frame": {"x":405, "y":93, "w":54, "h":80},
		"trimmed": "true",
		"spriteSourceSize": {"x":2,"y":6,"w":64,"h":88},
		"sourceSize": {"w":64,"h":88}
	},
	{
		"filename": "wizard_a2.png",
		"frame": {"x":521, "y":93, "w":58, "h":80},
		"trimmed": "true",
		"spriteSourceSize": {"x":2,"y":6,"w":64,"h":88},
		"sourceSize": {"w":64,"h":88}
	},
	{
		"filename": "wizard_a3.png",
		"frame": {"x":521, "y":174, "w":58, "h":80},
		"trimmed": "true",
		"spriteSourceSize": {"x":2,"y":6,"w":64,"h":88},
		"sourceSize": {"w":64,"h":88}
	},
	{
		"filename": "wizard_d.png",
		"frame": {"x":101, "y":0, "w":80, "h":50},
		"trimmed": "true",
		"spriteSourceSize": {"x":0,"y":0,"w":80,"h":50},
		"sourceSize": {"w":80,"h":50}
	},
	{
		"filename": "wizard_i.png",
		"frame": {"x":521, "y":350, "w":56, "h":78},
		"trimmed": "true",
		"spriteSourceSize": {"x":4,"y":8,"w":64,"h":88},
		"sourceSize": {"w":64,"h":88}
	},
	{
		"filename": "wizard_prt.png",
		"frame": {"x":0, "y":344, "w":94, "h":88},
		"trimmed": "true",
		"spriteSourceSize": {"x":0,"y":0,"w":94,"h":88},
		"sourceSize": {"w":94,"h":88}
	},
	{
		"filename": "wizard_w1.png",
		"frame": {"x":580, "y":85, "w":56, "h":82},
		"trimmed": "true",
		"spriteSourceSize": {"x":4,"y":4,"w":64,"h":88},
		"sourceSize": {"w":64,"h":88}
	},
	{
		"filename": "wizard_w2.png",
		"frame": {"x":527, "y":0, "w":56, "h":84},
		"trimmed": "true",
		"spriteSourceSize": {"x":6,"y":2,"w":64,"h":88},
		"sourceSize": {"w":64,"h":88}
	},
	{
		"filename": "wizard_w3.png",
		"frame": {"x":578, "y":350, "w":56, "h":84},
		"trimmed": "true",
		"spriteSourceSize": {"x":6,"y":2,"w":64,"h":88},
		"sourceSize": {"w":64,"h":88}
	},
	{
		"filename": "wizard_w4.png",
		"frame": {"x":580, "y":168, "w":56, "h":82},
		"trimmed": "true",
		"spriteSourceSize": {"x":6,"y":4,"w":64,"h":88},
		"sourceSize": {"w":64,"h":88}
	}

],
"meta": {
	"image": "main.png",
	"size": {"w": 1024, "h": 512},
	"scale": "1"
}
}