{
"frames": [
	{
		"filename": "circle.png",
		"frame": {"x":149, "y":305, "w":44, "h":36},
		"trimmed": "true",
		"spriteSourceSize": {"x":0,"y":0,"w":44,"h":36},
		"sourceSize": {"w":44,"h":36}
	},
	{
		"filename": "fan1_hit.png",
		"frame": {"x":245, "y":0, "w":32, "h":36},
		"trimmed": "true",
		"spriteSourceSize": {"x":2,"y":0,"w":34,"h":40},
		"sourceSize": {"w":34,"h":40}
	},
	{
		"filename": "fan1_i1.png",
		"frame": {"x":236, "y":200, "w":34, "h":40},
		"trimmed": "true",
		"spriteSourceSize": {"x":0,"y":0,"w":34,"h":40},
		"sourceSize": {"w":34,"h":40}
	},
	{
		"filename": "fan1_i2.png",
		"frame": {"x":260, "y":446, "w":32, "h":40},
		"trimmed": "true",
		"spriteSourceSize": {"x":2,"y":0,"w":34,"h":40},
		"sourceSize": {"w":34,"h":40}
	},
	{
		"filename": "fan1_i3.png",
		"frame": {"x":233, "y":277, "w":34, "h":40},
		"trimmed": "true",
		"spriteSourceSize": {"x":0,"y":0,"w":34,"h":40},
		"sourceSize": {"w":34,"h":40}
	},
	{
		"filename": "fan1_ye1.png",
		"frame": {"x":241, "y":99, "w":34, "h":36},
		"trimmed": "true",
		"spriteSourceSize": {"x":0,"y":0,"w":34,"h":40},
		"sourceSize": {"w":34,"h":40}
	},
	{
		"filename": "fan1_ye2.png",
		"frame": {"x":245, "y":37, "w":32, "h":36},
		"trimmed": "true",
		"spriteSourceSize": {"x":2,"y":0,"w":34,"h":40},
		"sourceSize": {"w":34,"h":40}
	},
	{
		"filename": "fan2_hit.png",
		"frame": {"x":268, "y":311, "w":30, "h":32},
		"trimmed": "true",
		"spriteSourceSize": {"x":0,"y":2,"w":30,"h":34},
		"sourceSize": {"w":30,"h":34}
	},
	{
		"filename": "fan2_i1.png",
		"frame": {"x":276, "y":113, "w":30, "h":34},
		"trimmed": "true",
		"spriteSourceSize": {"x":0,"y":0,"w":30,"h":34},
		"sourceSize": {"w":30,"h":34}
	},
	{
		"filename": "fan2_i2.png",
		"frame": {"x":271, "y":173, "w":30, "h":34},
		"trimmed": "true",
		"spriteSourceSize": {"x":0,"y":0,"w":30,"h":34},
		"sourceSize": {"w":30,"h":34}
	},
	{
		"filename": "fan2_i3.png",
		"frame": {"x":271, "y":208, "w":30, "h":32},
		"trimmed": "true",
		"spriteSourceSize": {"x":0,"y":2,"w":30,"h":34},
		"sourceSize": {"w":30,"h":34}
	},
	{
		"filename": "fan2_ye1.png",
		"frame": {"x":251, "y":241, "w":30, "h":34},
		"trimmed": "true",
		"spriteSourceSize": {"x":0,"y":0,"w":30,"h":34},
		"sourceSize": {"w":30,"h":34}
	},
	{
		"filename": "fan2_ye2.png",
		"frame": {"x":282, "y":241, "w":30, "h":34},
		"trimmed": "true",
		"spriteSourceSize": {"x":0,"y":0,"w":30,"h":34},
		"sourceSize": {"w":30,"h":34}
	},
	{
		"filename": "fanS_hit.png",
		"frame": {"x":241, "y":136, "w":34, "h":36},
		"trimmed": "true",
		"spriteSourceSize": {"x":2,"y":6,"w":40,"h":42},
		"sourceSize": {"w":40,"h":42}
	},
	{
		"filename": "fanS_i1.png",
		"frame": {"x":225, "y":446, "w":34, "h":36},
		"trimmed": "true",
		"spriteSourceSize": {"x":2,"y":6,"w":40,"h":42},
		"sourceSize": {"w":40,"h":42}
	},
	{
		"filename": "fanS_i2.png",
		"frame": {"x":194, "y":305, "w":38, "h":34},
		"trimmed": "true",
		"spriteSourceSize": {"x":0,"y":6,"w":40,"h":42},
		"sourceSize": {"w":40,"h":42}
	},
	{
		"filename": "fanS_i3.png",
		"frame": {"x":212, "y":242, "w":38, "h":34},
		"trimmed": "true",
		"spriteSourceSize": {"x":0,"y":6,"w":40,"h":42},
		"sourceSize": {"w":40,"h":42}
	},
	{
		"filename": "fanS_ye1.png",
		"frame": {"x":268, "y":276, "w":30, "h":34},
		"trimmed": "true",
		"spriteSourceSize": {"x":4,"y":6,"w":40,"h":42},
		"sourceSize": {"w":40,"h":42}
	},
	{
		"filename": "fanS_ye2.png",
		"frame": {"x":276, "y":74, "w":30, "h":38},
		"trimmed": "true",
		"spriteSourceSize": {"x":4,"y":2,"w":40,"h":42},
		"sourceSize": {"w":40,"h":42}
	},
	{
		"filename": "hex.png",
		"frame": {"x":149, "y":242, "w":62, "h":62},
		"trimmed": "true",
		"spriteSourceSize": {"x":0,"y":0,"w":62,"h":62},
		"sourceSize": {"w":62,"h":62}
	},
	{
		"filename": "lavapit1 (1).png",
		"frame": {"x":0, "y":458, "w":115, "h":43},
		"trimmed": "true",
		"spriteSourceSize": {"x":0,"y":0,"w":115,"h":43},
		"sourceSize": {"w":115,"h":43}
	},
	{
		"filename": "lavapit1.png",
		"frame": {"x":0, "y":0, "w":244, "h":98},
		"trimmed": "true",
		"spriteSourceSize": {"x":0,"y":0,"w":244,"h":98},
		"sourceSize": {"w":244,"h":98}
	},
	{
		"filename": "lavapit2 (1).png",
		"frame": {"x":149, "y":200, "w":86, "h":41},
		"trimmed": "true",
		"spriteSourceSize": {"x":0,"y":0,"w":86,"h":41},
		"sourceSize": {"w":86,"h":41}
	},
	{
		"filename": "lavapit2.png",
		"frame": {"x":0, "y":200, "w":148, "h":144},
		"trimmed": "true",
		"spriteSourceSize": {"x":0,"y":0,"w":148,"h":144},
		"sourceSize": {"w":148,"h":144}
	},
	{
		"filename": "lavapit3 (1).png",
		"frame": {"x":116, "y":458, "w":108, "h":42},
		"trimmed": "true",
		"spriteSourceSize": {"x":0,"y":0,"w":108,"h":42},
		"sourceSize": {"w":108,"h":42}
	},
	{
		"filename": "lavapit3.png",
		"frame": {"x":0, "y":99, "w":240, "h":100},
		"trimmed": "true",
		"spriteSourceSize": {"x":0,"y":0,"w":240,"h":100},
		"sourceSize": {"w":240,"h":100}
	},
	{
		"filename": "stone1.png",
		"frame": {"x":145, "y":345, "w":140, "h":100},
		"trimmed": "true",
		"spriteSourceSize": {"x":0,"y":0,"w":140,"h":100},
		"sourceSize": {"w":140,"h":100}
	},
	{
		"filename": "stone2.png",
		"frame": {"x":0, "y":345, "w":144, "h":112},
		"trimmed": "true",
		"spriteSourceSize": {"x":0,"y":0,"w":144,"h":112},
		"sourceSize": {"w":144,"h":112}
	}

],
"meta": {
	"image": "main.png",
	"size": {"w": 512, "h": 512},
	"scale": "1"
}
}